\relax 
\providecommand\hyper@newdestlabel[2]{}
\providecommand\babel@aux[2]{}
\@nameuse{bbl@beforestart}
\providecommand\HyperFirstAtBeginDocument{\AtBeginDocument}
\HyperFirstAtBeginDocument{\ifx\hyper@anchor\@undefined
\global\let\oldcontentsline\contentsline
\gdef\contentsline#1#2#3#4{\oldcontentsline{#1}{#2}{#3}}
\global\let\oldnewlabel\newlabel
\gdef\newlabel#1#2{\newlabelxx{#1}#2}
\gdef\newlabelxx#1#2#3#4#5#6{\oldnewlabel{#1}{{#2}{#3}}}
\AtEndDocument{\ifx\hyper@anchor\@undefined
\let\contentsline\oldcontentsline
\let\newlabel\oldnewlabel
\fi}
\fi}
\global\let\hyper@last\relax 
\gdef\HyperFirstAtBeginDocument#1{#1}
\providecommand*\HyPL@Entry[1]{}
\providecommand*\new@tpo@label[2]{}
\citation{internet-pop}
\citation{noint}
\HyPL@Entry{0<</S/D>>}
\babel@aux{english}{}
\@writefile{toc}{\contentsline {section}{\numberline {1}Introduction}{1}{section.1}\protected@file@percent }
\citation{google-stats}
\citation{prism}
\citation{guardian}
\citation{pulitzer-guardian}
\citation{5-billion}
\citation{100-million}
\@writefile{toc}{\contentsline {section}{\numberline {2}State-of-the-art, Needs and Challenges}{2}{section.2}\protected@file@percent }
\@writefile{toc}{\contentsline {subsection}{\numberline {2.1}The need for privacy}{2}{subsection.2.1}\protected@file@percent }
\citation{ieee-privacy}
\@writefile{lof}{\contentsline {figure}{\numberline {1}{\ignorespaces \footnotesize  {How personalized ads work in search engines, in simple terms.}}}{3}{figure.1}\protected@file@percent }
\newlabel{fig:searx-oper}{{1}{3}{\footnotesize {How personalized ads work in search engines, in simple terms.}}{figure.1}{}}
\citation{gdpr}
\citation{use-2012}
\citation{duck}
\citation{startpage}
\citation{duck-open}
\citation{duck-pop}
\@writefile{toc}{\contentsline {subsection}{\numberline {2.2}Current Technologies}{4}{subsection.2.2}\protected@file@percent }
\@writefile{toc}{\contentsline {subsubsection}{\numberline {2.2.1}Alternative and "Meta" Search Engines, the importance of crawlers}{4}{subsubsection.2.2.1}\protected@file@percent }
\citation{google}
\@writefile{lof}{\contentsline {figure}{\numberline {2}{\ignorespaces \footnotesize  {The anatomy of a web crawler, in simple terms.}}}{5}{figure.2}\protected@file@percent }
\newlabel{fig:anatomy-crawler}{{2}{5}{\footnotesize {The anatomy of a web crawler, in simple terms.}}{figure.2}{}}
\citation{searx}
\citation{python}
\citation{AGPLv3}
\citation{space}
\@writefile{toc}{\contentsline {subsubsection}{\numberline {2.2.2}The example of Searx, a Metasearch Engine}{6}{subsubsection.2.2.2}\protected@file@percent }
\@writefile{lof}{\contentsline {figure}{\numberline {3}{\ignorespaces \footnotesize  {How Searx operates, in 4 simple steps.}}}{6}{figure.3}\protected@file@percent }
\newlabel{fig:searx-oper}{{3}{6}{\footnotesize {How Searx operates, in 4 simple steps.}}{figure.3}{}}
\citation{Lucene}
\citation{Typesense}
\@writefile{toc}{\contentsline {subsubsection}{\numberline {2.2.3}A few words about Small Scale Search Engines}{7}{subsubsection.2.2.3}\protected@file@percent }
\@writefile{toc}{\contentsline {subsection}{\numberline {2.3}What lies ahead}{7}{subsection.2.3}\protected@file@percent }
\newlabel{subsec:what-lies-ahead}{{2.3}{7}{What lies ahead}{subsection.2.3}{}}
\@writefile{toc}{\contentsline {subsubsection}{\numberline {2.3.1}Uncertainty in the field of Information Recovery}{7}{subsubsection.2.3.1}\protected@file@percent }
\citation{captcha}
\citation{filtron}
\citation{events}
\@writefile{toc}{\contentsline {subsubsection}{\numberline {2.3.2}Obstacles of Technical Nature}{8}{subsubsection.2.3.2}\protected@file@percent }
\citation{list-oecd}
\citation{oecd}
\@writefile{toc}{\contentsline {subsubsection}{\numberline {2.3.3}Obstacles of Societal Nature}{9}{subsubsection.2.3.3}\protected@file@percent }
\@writefile{toc}{\contentsline {section}{\numberline {3}Conclusions}{10}{section.3}\protected@file@percent }
\bibcite{internet-pop}{1}
\bibcite{noint}{2}
\bibcite{google-stats}{3}
\bibcite{prism}{4}
\bibcite{guardian}{5}
\bibcite{pulitzer-guardian}{6}
\bibcite{5-billion}{7}
\bibcite{100-million}{8}
\bibcite{ieee-privacy}{9}
\bibcite{gdpr}{10}
\bibcite{use-2012}{11}
\bibcite{Lucene}{12}
\bibcite{Typesense}{13}
\bibcite{duck}{14}
\bibcite{startpage}{15}
\bibcite{duck-open}{16}
\bibcite{duck-pop}{17}
\bibcite{google}{18}
\bibcite{searx}{19}
\bibcite{python}{20}
\bibcite{AGPLv3}{21}
\bibcite{space}{22}
\bibcite{captcha}{23}
\bibcite{filtron}{24}
\bibcite{events}{25}
\bibcite{list-oecd}{26}
\bibcite{oecd}{27}
\gdef\svg@ink@ver@settings{{\m@ne }{inkscape}{1}}
\gdef \@abspage@last{13}
